2016/04/10 03:46:45.327 MergeJobOutputEDS.GenerateFilesForEDS...recipient 1 of 1: Type = WRET, UID.Vsn = 14.1 - RETENTION W/S Base Version
2016/04/10 03:46:45.327 MergeJobOutputEDS.Execute...MergeJobOutput locked for 395 ms.
2016/04/10 03:46:45.327 MergeJobOutputEDS.Execute...EXIT.
2016/04/10 03:46:45.327 MergeJob.ExecuteOutputEDS...EXIT.  status = True
2016/04/10 03:46:45.327 MergeJob.ExecuteOutputPrint...ENTER.
2016/04/10 03:46:45.327 MergeJob.ExecuteOutputPrint...mergeJobData.IsProcessOutputPdf = True
2016/04/10 03:46:45.327 MergeJobOutputPrint.Execute...ENTER.
2016/04/10 03:46:45.358 MergeJobOutputPrint.ExecutePolicyPrint...ENTER.
2016/04/10 03:46:45.374 MergeJobOutputPrint.ExecutePolicyPrint...Total Merge File Docs = 0
2016/04/10 03:46:45.374 MergeJobOutputPrint.ExecutePolicyPrint...Policy print report . . .
**    ASIC @VANTAGE OUTPUT REPORT.                                        **
**                                                                        **
**  THIS EMAIL HAS BEEN GENERATED FROM A JOB RUNNING                      **
**  IN PRODUCTION.  DO NOT REPLY TO THIS EMAIL!                           **
**                                                                        **

PRINT JOB: (3) ALL        - @suite Merge Job

RUN TIME : 4/10/2016 3:45:56 PM

Unit           Filename                                             Items Pages  File Size    
-------------- ---------------------------------------------------- ----- ------ -------------

-----------------------------------------------------
PdfName = J3_R519259_EC12_P0_F1_20160410_154556.pdf
AFPFileName = J3_R519259_EC12_P0_F1_20160410_154556.afp
AFPFilePath = E:\Acpt\DocPro\FormPrintApp\Output\Job003\Run519259\MergedAFP\J3_R519259_EC12_P0_F1_20160410_154556.afp
-----------------------------------------------------

SourceFilePath = E:\Acpt\DocPro\FormPrintApp\Output\Job003\Run519259\MergedAFP\J3_R519259_EC12_P0_F1_20160410_154556.afp
2016/04/10 03:46:46.029 MergeJobOutputPrint.WaitForFilesToArrive...nFilesCopied = 1, nFilesInShare = 1
2016/04/10 03:46:46.029 MergeJobOutputPrint.EmailMergeJobReport...ENTER.
2016/04/10 03:46:46.029 MergeJobOutputPrint.EmailMergeJobReport...EXIT.  AppProperties.IsMergeReportEmailEnabled() == false
2016/04/10 03:46:46.029 MergeJobOutputPrint.ExecutePolicyPrint...EXIT.
2016/04/10 03:46:46.045 MergeJobOutputPrint.Execute...EXIT.
2016/04/10 03:46:46.045 MergeJob.ExecuteOutputPrint...EXIT.  status = True
2016/04/10 03:46:46.045 MergeJob.DeleteOutputPdfFiles...IsMergeOutputPdfDeletePdfFiles = True
2016/04/10 03:46:46.045 MergeJob.DeleteOutputPdfFiles...Deleting files from E:\Acpt\DocPro\FormPrintApp\Output\Job003\Run519259\PDF
2016/04/10 03:46:46.045 MergeJob.DeleteOutputPdfFiles...Deleted file count = 7
2016/04/10 03:46:46.045 MergeJob.Execute...Subprocess execution statuses...
   executeEDSReprint     = False
   executeInputPrintDocs = True
   executeProcessForms   = False
   executeOutputPdf      = True
   executeOutputPS       = False
   executeOutputAFP      = True
   executeOutputEAS      = False
   executeOutputEDS      = True
   executeOutputPrint    = True
2016/04/10 03:46:46.045 MergeJob.MergeJobRunEnd...ENTER.
2016/04/10 03:46:46.045 MergeJob.MergeJobRunEnd...EXIT.
2016/04/10 03:46:46.060 MergeJob.Execute...EXIT.  MergeJob: UID=3/Sched=9/Run=2016-04-10T15:45:56
2016/04/10 03:46:46.060 MergeJob.Execute...-->CloseLogFiles
